…
why am I getting all these NAs?

``` r
plotData %>% 
  select(codist)
```

    ## # A tibble: 75 x 1
    ##     codist
    ##      <dbl>
    ##  1  0.131 
    ##  2  0.0933
    ##  3  0.0329
    ##  4  0.0180
    ##  5 -0.0519
    ##  6 -0.0358
    ##  7 -0.0960
    ##  8 -0.0287
    ##  9 -0.0309
    ## 10  0.0410
    ## # ... with 65 more rows
